\relax 
\citation{文献1}
\@writefile{toc}{\contentsline {section}{\numberline {1}はじめに\textcircled {8}}{1}}
\@writefile{toc}{\contentsline {section}{\numberline {2}用紙}{1}}
\@writefile{toc}{\contentsline {section}{\numberline {3}ページ数}{1}}
\@writefile{lof}{\contentsline {figure}{\numberline {1}{\ignorespaces サンプル図}}{1}}
\newlabel{figData}{{1}{1}}
\@writefile{lot}{\contentsline {table}{\numberline {1}{\ignorespaces サンプル表}}{1}}
\@writefile{toc}{\contentsline {section}{\numberline {4}注意事項}{1}}
\@writefile{toc}{\contentsline {section}{\numberline {5}構成}{1}}
\bibcite{文献1}{1}
\@writefile{toc}{\contentsline {section}{\numberline {6}提出}{2}}
\@writefile{toc}{\contentsline {section}{\numberline {7}提出期限}{2}}
\@writefile{toc}{\contentsline {section}{\numberline {8}謝辞}{2}}
